{
  "body": {
    "count": 16,
    "next": "http://testserver/edge-device/?page=2",
    "previous": null,
    "results": [
      {
        "account": 1,
        "carbon_estimated": false,
        "carbon_fallback_zone": null,
        "cluster_id": "contract-cluster-uid-15",
        "cpu_name": null,
        "cpu_nodes": {},
        "created_by": null,
        "date_joined": "2026-01-01T00:00:00Z",
        "decommissioned_at": null,
        "first_name": "contract-client-15",
        "gpu_name": null,
        "gpu_nodes": {},
        "id": 1,
        "is_decommissioned": false,
        "last_info_update": null,
        "location": "DE",
        "location_status": "set",
        "mysql_service": "",
        "namespace": "contract-client-15",
        "num_running_experiments": 0,
        "pod_cpu_cores_initial": null,
        "pod_cpu_cores_limit": null,
        "pod_num_gpus_initial": null,
        "pod_num_gpus_limit": null,
        "pod_ram_initial": null,
        "pod_ram_limit": null,
        "pod_vram_initial": null,
        "pod_vram_limit": null,
        "pue_constant": 1.0,
        "ram": 0.0,
        "status": 2,
        "tdp_of_cpu": 0.0,
        "tdp_of_gpu": 0.0,
        "username": "contract-edge-15",
        "v_cpu_cores": 0.0,
        "v_gpu_cores": 0.0,
        "vram": 0.0
      },
      {
        "account": 1,
        "carbon_estimated": false,
        "carbon_fallback_zone": null,
        "cluster_id": "contract-cluster-uid-14",
        "cpu_name": null,
        "cpu_nodes": {},
        "created_by": null,
        "date_joined": "2026-01-01T00:00:00Z",
        "decommissioned_at": null,
        "first_name": "contract-client-14",
        "gpu_name": null,
        "gpu_nodes": {},
        "id": 1,
        "is_decommissioned": false,
        "last_info_update": null,
        "location": "DE",
        "location_status": "set",
        "mysql_service": "",
        "namespace": "contract-client-14",
        "num_running_experiments": 0,
        "pod_cpu_cores_initial": null,
        "pod_cpu_cores_limit": null,
        "pod_num_gpus_initial": null,
        "pod_num_gpus_limit": null,
        "pod_ram_initial": null,
        "pod_ram_limit": null,
        "pod_vram_initial": null,
        "pod_vram_limit": null,
        "pue_constant": 1.0,
        "ram": 0.0,
        "status": 2,
        "tdp_of_cpu": 0.0,
        "tdp_of_gpu": 0.0,
        "username": "contract-edge-14",
        "v_cpu_cores": 0.0,
        "v_gpu_cores": 0.0,
        "vram": 0.0
      },
      {
        "account": 1,
        "carbon_estimated": false,
        "carbon_fallback_zone": null,
        "cluster_id": "contract-cluster-uid-13",
        "cpu_name": null,
        "cpu_nodes": {},
        "created_by": null,
        "date_joined": "2026-01-01T00:00:00Z",
        "decommissioned_at": null,
        "first_name": "contract-client-13",
        "gpu_name": null,
        "gpu_nodes": {},
        "id": 1,
        "is_decommissioned": false,
        "last_info_update": null,
        "location": "DE",
        "location_status": "set",
        "mysql_service": "",
        "namespace": "contract-client-13",
        "num_running_experiments": 0,
        "pod_cpu_cores_initial": null,
        "pod_cpu_cores_limit": null,
        "pod_num_gpus_initial": null,
        "pod_num_gpus_limit": null,
        "pod_ram_initial": null,
        "pod_ram_limit": null,
        "pod_vram_initial": null,
        "pod_vram_limit": null,
        "pue_constant": 1.0,
        "ram": 0.0,
        "status": 2,
        "tdp_of_cpu": 0.0,
        "tdp_of_gpu": 0.0,
        "username": "contract-edge-13",
        "v_cpu_cores": 0.0,
        "v_gpu_cores": 0.0,
        "vram": 0.0
      },
      {
        "account": 1,
        "carbon_estimated": false,
        "carbon_fallback_zone": null,
        "cluster_id": "contract-cluster-uid-12",
        "cpu_name": null,
        "cpu_nodes": {},
        "created_by": null,
        "date_joined": "2026-01-01T00:00:00Z",
        "decommissioned_at": null,
        "first_name": "contract-client-12",
        "gpu_name": null,
        "gpu_nodes": {},
        "id": 1,
        "is_decommissioned": false,
        "last_info_update": null,
        "location": "DE",
        "location_status": "set",
        "mysql_service": "",
        "namespace": "contract-client-12",
        "num_running_experiments": 0,
        "pod_cpu_cores_initial": null,
        "pod_cpu_cores_limit": null,
        "pod_num_gpus_initial": null,
        "pod_num_gpus_limit": null,
        "pod_ram_initial": null,
        "pod_ram_limit": null,
        "pod_vram_initial": null,
        "pod_vram_limit": null,
        "pue_constant": 1.0,
        "ram": 0.0,
        "status": 2,
        "tdp_of_cpu": 0.0,
        "tdp_of_gpu": 0.0,
        "username": "contract-edge-12",
        "v_cpu_cores": 0.0,
        "v_gpu_cores": 0.0,
        "vram": 0.0
      },
      {
        "account": 1,
        "carbon_estimated": false,
        "carbon_fallback_zone": null,
        "cluster_id": "contract-cluster-uid-11",
        "cpu_name": null,
        "cpu_nodes": {},
        "created_by": null,
        "date_joined": "2026-01-01T00:00:00Z",
        "decommissioned_at": null,
        "first_name": "contract-client-11",
        "gpu_name": null,
        "gpu_nodes": {},
        "id": 1,
        "is_decommissioned": false,
        "last_info_update": null,
        "location": "DE",
        "location_status": "set",
        "mysql_service": "",
        "namespace": "contract-client-11",
        "num_running_experiments": 0,
        "pod_cpu_cores_initial": null,
        "pod_cpu_cores_limit": null,
        "pod_num_gpus_initial": null,
        "pod_num_gpus_limit": null,
        "pod_ram_initial": null,
        "pod_ram_limit": null,
        "pod_vram_initial": null,
        "pod_vram_limit": null,
        "pue_constant": 1.0,
        "ram": 0.0,
        "status": 2,
        "tdp_of_cpu": 0.0,
        "tdp_of_gpu": 0.0,
        "username": "contract-edge-11",
        "v_cpu_cores": 0.0,
        "v_gpu_cores": 0.0,
        "vram": 0.0
      },
      {
        "account": 1,
        "carbon_estimated": false,
        "carbon_fallback_zone": null,
        "cluster_id": "contract-cluster-uid-10",
        "cpu_name": null,
        "cpu_nodes": {},
        "created_by": null,
        "date_joined": "2026-01-01T00:00:00Z",
        "decommissioned_at": null,
        "first_name": "contract-client-10",
        "gpu_name": null,
        "gpu_nodes": {},
        "id": 1,
        "is_decommissioned": false,
        "last_info_update": null,
        "location": "DE",
        "location_status": "set",
        "mysql_service": "",
        "namespace": "contract-client-10",
        "num_running_experiments": 0,
        "pod_cpu_cores_initial": null,
        "pod_cpu_cores_limit": null,
        "pod_num_gpus_initial": null,
        "pod_num_gpus_limit": null,
        "pod_ram_initial": null,
        "pod_ram_limit": null,
        "pod_vram_initial": null,
        "pod_vram_limit": null,
        "pue_constant": 1.0,
        "ram": 0.0,
        "status": 2,
        "tdp_of_cpu": 0.0,
        "tdp_of_gpu": 0.0,
        "username": "contract-edge-10",
        "v_cpu_cores": 0.0,
        "v_gpu_cores": 0.0,
        "vram": 0.0
      },
      {
        "account": 1,
        "carbon_estimated": false,
        "carbon_fallback_zone": null,
        "cluster_id": "contract-cluster-uid-09",
        "cpu_name": null,
        "cpu_nodes": {},
        "created_by": null,
        "date_joined": "2026-01-01T00:00:00Z",
        "decommissioned_at": null,
        "first_name": "contract-client-09",
        "gpu_name": null,
        "gpu_nodes": {},
        "id": 1,
        "is_decommissioned": false,
        "last_info_update": null,
        "location": "DE",
        "location_status": "set",
        "mysql_service": "",
        "namespace": "contract-client-09",
        "num_running_experiments": 0,
        "pod_cpu_cores_initial": null,
        "pod_cpu_cores_limit": null,
        "pod_num_gpus_initial": null,
        "pod_num_gpus_limit": null,
        "pod_ram_initial": null,
        "pod_ram_limit": null,
        "pod_vram_initial": null,
        "pod_vram_limit": null,
        "pue_constant": 1.0,
        "ram": 0.0,
        "status": 2,
        "tdp_of_cpu": 0.0,
        "tdp_of_gpu": 0.0,
        "username": "contract-edge-09",
        "v_cpu_cores": 0.0,
        "v_gpu_cores": 0.0,
        "vram": 0.0
      },
      {
        "account": 1,
        "carbon_estimated": false,
        "carbon_fallback_zone": null,
        "cluster_id": "contract-cluster-uid-08",
        "cpu_name": null,
        "cpu_nodes": {},
        "created_by": null,
        "date_joined": "2026-01-01T00:00:00Z",
        "decommissioned_at": null,
        "first_name": "contract-client-08",
        "gpu_name": null,
        "gpu_nodes": {},
        "id": 1,
        "is_decommissioned": false,
        "last_info_update": null,
        "location": "DE",
        "location_status": "set",
        "mysql_service": "",
        "namespace": "contract-client-08",
        "num_running_experiments": 0,
        "pod_cpu_cores_initial": null,
        "pod_cpu_cores_limit": null,
        "pod_num_gpus_initial": null,
        "pod_num_gpus_limit": null,
        "pod_ram_initial": null,
        "pod_ram_limit": null,
        "pod_vram_initial": null,
        "pod_vram_limit": null,
        "pue_constant": 1.0,
        "ram": 0.0,
        "status": 2,
        "tdp_of_cpu": 0.0,
        "tdp_of_gpu": 0.0,
        "username": "contract-edge-08",
        "v_cpu_cores": 0.0,
        "v_gpu_cores": 0.0,
        "vram": 0.0
      },
      {
        "account": 1,
        "carbon_estimated": false,
        "carbon_fallback_zone": null,
        "cluster_id": "contract-cluster-uid-07",
        "cpu_name": null,
        "cpu_nodes": {},
        "created_by": null,
        "date_joined": "2026-01-01T00:00:00Z",
        "decommissioned_at": null,
        "first_name": "contract-client-07",
        "gpu_name": null,
        "gpu_nodes": {},
        "id": 1,
        "is_decommissioned": false,
        "last_info_update": null,
        "location": "DE",
        "location_status": "set",
        "mysql_service": "",
        "namespace": "contract-client-07",
        "num_running_experiments": 0,
        "pod_cpu_cores_initial": null,
        "pod_cpu_cores_limit": null,
        "pod_num_gpus_initial": null,
        "pod_num_gpus_limit": null,
        "pod_ram_initial": null,
        "pod_ram_limit": null,
        "pod_vram_initial": null,
        "pod_vram_limit": null,
        "pue_constant": 1.0,
        "ram": 0.0,
        "status": 2,
        "tdp_of_cpu": 0.0,
        "tdp_of_gpu": 0.0,
        "username": "contract-edge-07",
        "v_cpu_cores": 0.0,
        "v_gpu_cores": 0.0,
        "vram": 0.0
      },
      {
        "account": 1,
        "carbon_estimated": false,
        "carbon_fallback_zone": null,
        "cluster_id": "contract-cluster-uid-06",
        "cpu_name": null,
        "cpu_nodes": {},
        "created_by": null,
        "date_joined": "2026-01-01T00:00:00Z",
        "decommissioned_at": null,
        "first_name": "contract-client-06",
        "gpu_name": null,
        "gpu_nodes": {},
        "id": 1,
        "is_decommissioned": false,
        "last_info_update": null,
        "location": "DE",
        "location_status": "set",
        "mysql_service": "",
        "namespace": "contract-client-06",
        "num_running_experiments": 0,
        "pod_cpu_cores_initial": null,
        "pod_cpu_cores_limit": null,
        "pod_num_gpus_initial": null,
        "pod_num_gpus_limit": null,
        "pod_ram_initial": null,
        "pod_ram_limit": null,
        "pod_vram_initial": null,
        "pod_vram_limit": null,
        "pue_constant": 1.0,
        "ram": 0.0,
        "status": 2,
        "tdp_of_cpu": 0.0,
        "tdp_of_gpu": 0.0,
        "username": "contract-edge-06",
        "v_cpu_cores": 0.0,
        "v_gpu_cores": 0.0,
        "vram": 0.0
      },
      {
        "account": 1,
        "carbon_estimated": false,
        "carbon_fallback_zone": null,
        "cluster_id": "contract-cluster-uid-05",
        "cpu_name": null,
        "cpu_nodes": {},
        "created_by": null,
        "date_joined": "2026-01-01T00:00:00Z",
        "decommissioned_at": null,
        "first_name": "contract-client-05",
        "gpu_name": null,
        "gpu_nodes": {},
        "id": 1,
        "is_decommissioned": false,
        "last_info_update": null,
        "location": "DE",
        "location_status": "set",
        "mysql_service": "",
        "namespace": "contract-client-05",
        "num_running_experiments": 0,
        "pod_cpu_cores_initial": null,
        "pod_cpu_cores_limit": null,
        "pod_num_gpus_initial": null,
        "pod_num_gpus_limit": null,
        "pod_ram_initial": null,
        "pod_ram_limit": null,
        "pod_vram_initial": null,
        "pod_vram_limit": null,
        "pue_constant": 1.0,
        "ram": 0.0,
        "status": 2,
        "tdp_of_cpu": 0.0,
        "tdp_of_gpu": 0.0,
        "username": "contract-edge-05",
        "v_cpu_cores": 0.0,
        "v_gpu_cores": 0.0,
        "vram": 0.0
      },
      {
        "account": 1,
        "carbon_estimated": false,
        "carbon_fallback_zone": null,
        "cluster_id": "contract-cluster-uid-04",
        "cpu_name": null,
        "cpu_nodes": {},
        "created_by": null,
        "date_joined": "2026-01-01T00:00:00Z",
        "decommissioned_at": null,
        "first_name": "contract-client-04",
        "gpu_name": null,
        "gpu_nodes": {},
        "id": 1,
        "is_decommissioned": false,
        "last_info_update": null,
        "location": "DE",
        "location_status": "set",
        "mysql_service": "",
        "namespace": "contract-client-04",
        "num_running_experiments": 0,
        "pod_cpu_cores_initial": null,
        "pod_cpu_cores_limit": null,
        "pod_num_gpus_initial": null,
        "pod_num_gpus_limit": null,
        "pod_ram_initial": null,
        "pod_ram_limit": null,
        "pod_vram_initial": null,
        "pod_vram_limit": null,
        "pue_constant": 1.0,
        "ram": 0.0,
        "status": 2,
        "tdp_of_cpu": 0.0,
        "tdp_of_gpu": 0.0,
        "username": "contract-edge-04",
        "v_cpu_cores": 0.0,
        "v_gpu_cores": 0.0,
        "vram": 0.0
      },
      {
        "account": 1,
        "carbon_estimated": false,
        "carbon_fallback_zone": null,
        "cluster_id": "contract-cluster-uid-03",
        "cpu_name": null,
        "cpu_nodes": {},
        "created_by": null,
        "date_joined": "2026-01-01T00:00:00Z",
        "decommissioned_at": null,
        "first_name": "contract-client-03",
        "gpu_name": null,
        "gpu_nodes": {},
        "id": 1,
        "is_decommissioned": false,
        "last_info_update": null,
        "location": "DE",
        "location_status": "set",
        "mysql_service": "",
        "namespace": "contract-client-03",
        "num_running_experiments": 0,
        "pod_cpu_cores_initial": null,
        "pod_cpu_cores_limit": null,
        "pod_num_gpus_initial": null,
        "pod_num_gpus_limit": null,
        "pod_ram_initial": null,
        "pod_ram_limit": null,
        "pod_vram_initial": null,
        "pod_vram_limit": null,
        "pue_constant": 1.0,
        "ram": 0.0,
        "status": 2,
        "tdp_of_cpu": 0.0,
        "tdp_of_gpu": 0.0,
        "username": "contract-edge-03",
        "v_cpu_cores": 0.0,
        "v_gpu_cores": 0.0,
        "vram": 0.0
      },
      {
        "account": 1,
        "carbon_estimated": false,
        "carbon_fallback_zone": null,
        "cluster_id": "contract-cluster-uid-02",
        "cpu_name": null,
        "cpu_nodes": {},
        "created_by": null,
        "date_joined": "2026-01-01T00:00:00Z",
        "decommissioned_at": null,
        "first_name": "contract-client-02",
        "gpu_name": null,
        "gpu_nodes": {},
        "id": 1,
        "is_decommissioned": false,
        "last_info_update": null,
        "location": "DE",
        "location_status": "set",
        "mysql_service": "",
        "namespace": "contract-client-02",
        "num_running_experiments": 0,
        "pod_cpu_cores_initial": null,
        "pod_cpu_cores_limit": null,
        "pod_num_gpus_initial": null,
        "pod_num_gpus_limit": null,
        "pod_ram_initial": null,
        "pod_ram_limit": null,
        "pod_vram_initial": null,
        "pod_vram_limit": null,
        "pue_constant": 1.0,
        "ram": 0.0,
        "status": 2,
        "tdp_of_cpu": 0.0,
        "tdp_of_gpu": 0.0,
        "username": "contract-edge-02",
        "v_cpu_cores": 0.0,
        "v_gpu_cores": 0.0,
        "vram": 0.0
      },
      {
        "account": 1,
        "carbon_estimated": false,
        "carbon_fallback_zone": null,
        "cluster_id": "contract-cluster-uid-01",
        "cpu_name": null,
        "cpu_nodes": {},
        "created_by": null,
        "date_joined": "2026-01-01T00:00:00Z",
        "decommissioned_at": null,
        "first_name": "contract-client-01",
        "gpu_name": null,
        "gpu_nodes": {},
        "id": 1,
        "is_decommissioned": false,
        "last_info_update": null,
        "location": "DE",
        "location_status": "set",
        "mysql_service": "",
        "namespace": "contract-client-01",
        "num_running_experiments": 0,
        "pod_cpu_cores_initial": null,
        "pod_cpu_cores_limit": null,
        "pod_num_gpus_initial": null,
        "pod_num_gpus_limit": null,
        "pod_ram_initial": null,
        "pod_ram_limit": null,
        "pod_vram_initial": null,
        "pod_vram_limit": null,
        "pue_constant": 1.0,
        "ram": 0.0,
        "status": 2,
        "tdp_of_cpu": 0.0,
        "tdp_of_gpu": 0.0,
        "username": "contract-edge-01",
        "v_cpu_cores": 0.0,
        "v_gpu_cores": 0.0,
        "vram": 0.0
      }
    ]
  },
  "status": 200
}
